{
    "current_page": 1,
    "data": [
        {
            "id": "cmph3ux7d006e14cr5qim3xk2",
            "from_id": "rdwhomggog79zxlcry95i59g",
            "from_type": "Location",
            "to_id": "cmlw3om9d000004jrvihi3qlk",
            "to_type": "Character",
            "alias": "Dîn-io",
            "campaign_id": "cmj78gm6k000004jrvzm7gcjr",
            "created_at": "2026-05-22T15:59:35.052000"
        },
        {
            "id": "cmph3ux7e006f14cr7uxzse9v",
            "from_id": "rdwhomggog79zxlcry95i59g",
            "from_type": "Location",
            "to_id": "xlxu645kjp8qpu98alb841fz",
            "to_type": "Faction",
            "alias": "Die Gruppe",
            "campaign_id": "cmj78gm6k000004jrvzm7gcjr",
            "created_at": "2026-05-22T15:59:35.052000"
        },
        {
            "id": "cmph3ux7e006g14cry8tfajqz",
            "from_id": "rdwhomggog79zxlcry95i59g",
            "from_type": "Location",
            "to_id": "cq0z8sun87cpopu2wqifdmi8",
            "to_type": "Location",
            "alias": "Bauernhof",
            "campaign_id": "cmj78gm6k000004jrvzm7gcjr",
            "created_at": "2026-05-22T15:59:35.052000"
        },
        {
            "id": "cmph3ux7e006h14crxijp43bg",
            "from_id": "rdwhomggog79zxlcry95i59g",
            "from_type": "Location",
            "to_id": "ufnkda6hm8m5qgyt4jp0d4fy",
            "to_type": "Character",
            "alias": "Nathalie (Schwein)",
            "campaign_id": "cmj78gm6k000004jrvzm7gcjr",
            "created_at": "2026-05-22T15:59:35.052000"
        },
        {
            "id": "cmph3ux7e006i14cru945mqp0",
            "from_id": "rdwhomggog79zxlcry95i59g",
            "from_type": "Location",
            "to_id": "ufnkda6hm8m5qgyt4jp0d4fy",
            "to_type": "Character",
            "alias": "Nathalie",
            "campaign_id": "cmj78gm6k000004jrvzm7gcjr",
            "created_at": "2026-05-22T15:59:35.052000"
        },
        {
            "id": "cmph3ux4a006a14crt2ggpfyd",
            "from_id": "oaju2pfpu9104sk7udki8bno",
            "from_type": "Location",
            "to_id": "fw4ds0y1xn27uh73cfya4rvi",
            "to_type": "Location",
            "alias": "Arena",
            "campaign_id": "cmj78gm6k000004jrvzm7gcjr",
            "created_at": "2026-05-22T15:59:34.940000"
        },
        {
            "id": "cmph3ux4a006b14cr8935v04o",
            "from_id": "oaju2pfpu9104sk7udki8bno",
            "from_type": "Location",
            "to_id": "shet6ekatkf4fcaj85oztfiu",
            "to_type": "Character",
            "alias": "Löwe",
            "campaign_id": "cmj78gm6k000004jrvzm7gcjr",
            "created_at": "2026-05-22T15:59:34.940000"
        },
        {
            "id": "cmph3ux4a006c14crwah8fqaw",
            "from_id": "oaju2pfpu9104sk7udki8bno",
            "from_type": "Location",
            "to_id": "p2kgbt9unk0t0pitaoowusfq",
            "to_type": "Character",
            "alias": "Wolf",
            "campaign_id": "cmj78gm6k000004jrvzm7gcjr",
            "created_at": "2026-05-22T15:59:34.940000"
        },
        {
            "id": "cmph3ux4a006d14crd53rohr5",
            "from_id": "oaju2pfpu9104sk7udki8bno",
            "from_type": "Location",
            "to_id": "hkdh5z3jx30iyflszlxyghzx",
            "to_type": "Character",
            "alias": "Schwarzbär",
            "campaign_id": "cmj78gm6k000004jrvzm7gcjr",
            "created_at": "2026-05-22T15:59:34.940000"
        },
        {
            "id": "cmph3ux17006614cru81alqyi",
            "from_id": "kw8ul5ao66k8c4637p1cqx41",
            "from_type": "Location",
            "to_id": "xlxu645kjp8qpu98alb841fz",
            "to_type": "Faction",
            "alias": "Die Gruppe",
            "campaign_id": "cmj78gm6k000004jrvzm7gcjr",
            "created_at": "2026-05-22T15:59:34.829000"
        },
        {
            "id": "cmph3ux17006714cr66z30r6j",
            "from_id": "kw8ul5ao66k8c4637p1cqx41",
            "from_type": "Location",
            "to_id": "si8kyq9frt9a4a8xdc2widg4",
            "to_type": "Character",
            "alias": "Hexe",
            "campaign_id": "cmj78gm6k000004jrvzm7gcjr",
            "created_at": "2026-05-22T15:59:34.829000"
        },
        {
            "id": "cmph3ux17006814crsvw5zrrt",
            "from_id": "kw8ul5ao66k8c4637p1cqx41",
            "from_type": "Location",
            "to_id": "iiokb2ak6rqong6zi1hmpxqu",
            "to_type": "Location",
            "alias": "Wald",
            "campaign_id": "cmj78gm6k000004jrvzm7gcjr",
            "created_at": "2026-05-22T15:59:34.829000"
        },
        {
            "id": "cmph3ux17006914crnrh8u29j",
            "from_id": "kw8ul5ao66k8c4637p1cqx41",
            "from_type": "Location",
            "to_id": "si8kyq9frt9a4a8xdc2widg4",
            "to_type": "Character",
            "alias": "Elysia Darkthorn",
            "campaign_id": "cmj78gm6k000004jrvzm7gcjr",
            "created_at": "2026-05-22T15:59:34.829000"
        },
        {
            "id": "cmph3uwy4006114cr0g94bqg0",
            "from_id": "iiokb2ak6rqong6zi1hmpxqu",
            "from_type": "Location",
            "to_id": "si8kyq9frt9a4a8xdc2widg4",
            "to_type": "Character",
            "alias": "Hexe",
            "campaign_id": "cmj78gm6k000004jrvzm7gcjr",
            "created_at": "2026-05-22T15:59:34.716000"
        },
        {
            "id": "cmph3uwy4006214crlxvf77l3",
            "from_id": "iiokb2ak6rqong6zi1hmpxqu",
            "from_type": "Location",
            "to_id": "xw7n54o5bmaxx36mdxbroqsi",
            "to_type": "Character",
            "alias": "Elisabeth",
            "campaign_id": "cmj78gm6k000004jrvzm7gcjr",
            "created_at": "2026-05-22T15:59:34.716000"
        },
        {
            "id": "cmph3uwy4006314crvyad5a8x",
            "from_id": "iiokb2ak6rqong6zi1hmpxqu",
            "from_type": "Location",
            "to_id": "xlxu645kjp8qpu98alb841fz",
            "to_type": "Faction",
            "alias": "Die Gruppe",
            "campaign_id": "cmj78gm6k000004jrvzm7gcjr",
            "created_at": "2026-05-22T15:59:34.716000"
        },
        {
            "id": "cmph3uwy4006414crot4xhp8z",
            "from_id": "iiokb2ak6rqong6zi1hmpxqu",
            "from_type": "Location",
            "to_id": "si8kyq9frt9a4a8xdc2widg4",
            "to_type": "Character",
            "alias": "Elysia Darkthorn",
            "campaign_id": "cmj78gm6k000004jrvzm7gcjr",
            "created_at": "2026-05-22T15:59:34.716000"
        },
        {
            "id": "cmph3uwy4006514cryyclmh12",
            "from_id": "iiokb2ak6rqong6zi1hmpxqu",
            "from_type": "Location",
            "to_id": "cq0z8sun87cpopu2wqifdmi8",
            "to_type": "Location",
            "alias": "Bauernhof",
            "campaign_id": "cmj78gm6k000004jrvzm7gcjr",
            "created_at": "2026-05-22T15:59:34.716000"
        },
        {
            "id": "cmph3uwux005z14crbyv9j6s7",
            "from_id": "fw4ds0y1xn27uh73cfya4rvi",
            "from_type": "Location",
            "to_id": "llylu8dh9m9jdu26v5ewvk41",
            "to_type": "Faction",
            "alias": "Publikum",
            "campaign_id": "cmj78gm6k000004jrvzm7gcjr",
            "created_at": "2026-05-22T15:59:34.604000"
        },
        {
            "id": "cmph3uwux006014cr9iymubmj",
            "from_id": "fw4ds0y1xn27uh73cfya4rvi",
            "from_type": "Location",
            "to_id": "p2kgbt9unk0t0pitaoowusfq",
            "to_type": "Character",
            "alias": "Wolf",
            "campaign_id": "cmj78gm6k000004jrvzm7gcjr",
            "created_at": "2026-05-22T15:59:34.604000"
        }
    ],
    "from": 1,
    "last_page": 33,
    "per_page": 20,
    "to": 20,
    "total": 656
}
