{
    "current_page": 1,
    "data": [
        {
            "id": "cmpfpftlt000a04l6g30b2i8w",
            "from_id": "y4ibdbycnt8e3jc1j6vjqb2b",
            "from_type": "Location",
            "to_id": "cmlw3om9d000004jrvihi3qlk",
            "to_type": "Character",
            "alias": "Dîn-io",
            "campaign_id": "cmj78gm6k000004jrvzm7gcjr",
            "created_at": "2026-05-21T16:28:09.761000"
        },
        {
            "id": "cmpfpftlc000904l66hvv7gy2",
            "from_id": "y4ibdbycnt8e3jc1j6vjqb2b",
            "from_type": "Location",
            "to_id": "y4ibdbycnt8e3jc1j6vjqb2b",
            "to_type": "Location",
            "alias": "Gefängnis",
            "campaign_id": "cmj78gm6k000004jrvzm7gcjr",
            "created_at": "2026-05-21T16:28:09.744000"
        },
        {
            "id": "cmpfpftkt000804l6jv66o6fh",
            "from_id": "y4ibdbycnt8e3jc1j6vjqb2b",
            "from_type": "Location",
            "to_id": "y4ibdbycnt8e3jc1j6vjqb2b",
            "to_type": "Location",
            "alias": "Revel's End",
            "campaign_id": "cmj78gm6k000004jrvzm7gcjr",
            "created_at": "2026-05-21T16:28:09.725000"
        },
        {
            "id": "cmpfj7bf9006n217ivurtrstl",
            "from_id": "yao5ziciwkjaexipj0r3ecf3",
            "from_type": "Location",
            "to_id": "cmlw3om9d000004jrvihi3qlk",
            "to_type": "Character",
            "alias": "Dîn-io",
            "campaign_id": "cmj78gm6k000004jrvzm7gcjr",
            "created_at": "2026-05-21T13:33:35.240000"
        },
        {
            "id": "cmpfj7bf9006o217i956u1xxs",
            "from_id": "yao5ziciwkjaexipj0r3ecf3",
            "from_type": "Location",
            "to_id": "cmlw3rcht000104jrhi3ad2ba",
            "to_type": "Character",
            "alias": "Naevys",
            "campaign_id": "cmj78gm6k000004jrvzm7gcjr",
            "created_at": "2026-05-21T13:33:35.240000"
        },
        {
            "id": "cmpfj7bcb006k217ih1dj7nmj",
            "from_id": "y4ibdbycnt8e3jc1j6vjqb2b",
            "from_type": "Location",
            "to_id": "b1enrw25w1cbngrghpmqutl4",
            "to_type": "Character",
            "alias": "Gefängnisaufseher",
            "campaign_id": "cmj78gm6k000004jrvzm7gcjr",
            "created_at": "2026-05-21T13:33:35.134000"
        },
        {
            "id": "cmpfj7bcb006l217ivxlwxsvh",
            "from_id": "y4ibdbycnt8e3jc1j6vjqb2b",
            "from_type": "Location",
            "to_id": "b1enrw25w1cbngrghpmqutl4",
            "to_type": "Character",
            "alias": "Aufseher",
            "campaign_id": "cmj78gm6k000004jrvzm7gcjr",
            "created_at": "2026-05-21T13:33:35.134000"
        },
        {
            "id": "cmpfj7bcb006m217iduqp748t",
            "from_id": "y4ibdbycnt8e3jc1j6vjqb2b",
            "from_type": "Location",
            "to_id": "i8dldu6bzmc4e9tel2ikmndt",
            "to_type": "Item",
            "alias": "Kugel",
            "campaign_id": "cmj78gm6k000004jrvzm7gcjr",
            "created_at": "2026-05-21T13:33:35.134000"
        },
        {
            "id": "cmpfj7b9a006h217ir4rghj1o",
            "from_id": "kz8plngsrbvwosyx48onz2u6",
            "from_type": "Location",
            "to_id": "bjl8cam5c5l5n66tuae69v3z",
            "to_type": "Faction",
            "alias": "Die Jäger",
            "campaign_id": "cmj78gm6k000004jrvzm7gcjr",
            "created_at": "2026-05-21T13:33:35.025000"
        },
        {
            "id": "cmpfj7b9a006i217is94hxu04",
            "from_id": "kz8plngsrbvwosyx48onz2u6",
            "from_type": "Location",
            "to_id": "t841a97n2ielxqcvtnxp8cea",
            "to_type": "Character",
            "alias": "Päckli Lomba",
            "campaign_id": "cmj78gm6k000004jrvzm7gcjr",
            "created_at": "2026-05-21T13:33:35.025000"
        },
        {
            "id": "cmpfj7b3d006b217iefhoikf1",
            "from_id": "bv38x9x7n4dj6v9uyd3eivqt",
            "from_type": "Location",
            "to_id": "zkcx9osgz2rnddizsx31gd87",
            "to_type": "Character",
            "alias": "Yeti",
            "campaign_id": "cmj78gm6k000004jrvzm7gcjr",
            "created_at": "2026-05-21T13:33:34.812000"
        },
        {
            "id": "cmpfj7b3d006c217ivgmlbimo",
            "from_id": "bv38x9x7n4dj6v9uyd3eivqt",
            "from_type": "Location",
            "to_id": "wdws726iiar58ui81ye7r9hq",
            "to_type": "Faction",
            "alias": "Mammuts",
            "campaign_id": "cmj78gm6k000004jrvzm7gcjr",
            "created_at": "2026-05-21T13:33:34.812000"
        },
        {
            "id": "cmpfj7b3d006d217idb1arqzg",
            "from_id": "bv38x9x7n4dj6v9uyd3eivqt",
            "from_type": "Location",
            "to_id": "vxq8ytn9shzehe5dylppp447",
            "to_type": "Character",
            "alias": "Wolfsmutter",
            "campaign_id": "cmj78gm6k000004jrvzm7gcjr",
            "created_at": "2026-05-21T13:33:34.812000"
        },
        {
            "id": "cmpfj7b3d006e217isstr56cl",
            "from_id": "bv38x9x7n4dj6v9uyd3eivqt",
            "from_type": "Location",
            "to_id": "bjl8cam5c5l5n66tuae69v3z",
            "to_type": "Faction",
            "alias": "Jäger",
            "campaign_id": "cmj78gm6k000004jrvzm7gcjr",
            "created_at": "2026-05-21T13:33:34.812000"
        },
        {
            "id": "cmpbg3xge008c1gdqa5f8h2sb",
            "from_id": "pbd51edatctika2hzpr8dxss",
            "from_type": "Location",
            "to_id": "m01l08j6c5ypxdcaxgcoqiwd",
            "to_type": "Item",
            "alias": "verschlossene Truhe mit Bannmagie",
            "campaign_id": "cmj78gm6k000004jrvzm7gcjr",
            "created_at": "2026-05-18T16:55:53.615000"
        },
        {
            "id": "cmpbg3xge008d1gdqxjqkqwup",
            "from_id": "pbd51edatctika2hzpr8dxss",
            "from_type": "Location",
            "to_id": "xpv723vsxdr7pm1o9w0b8h8f",
            "to_type": "Item",
            "alias": "Buch",
            "campaign_id": "cmj78gm6k000004jrvzm7gcjr",
            "created_at": "2026-05-18T16:55:53.615000"
        },
        {
            "id": "cmpbg3xge008e1gdq40i70dm5",
            "from_id": "pbd51edatctika2hzpr8dxss",
            "from_type": "Location",
            "to_id": "r2k0srsuvhwby6zystohtuza",
            "to_type": "Character",
            "alias": "Hohepriesterin",
            "campaign_id": "cmj78gm6k000004jrvzm7gcjr",
            "created_at": "2026-05-18T16:55:53.615000"
        },
        {
            "id": "cmpbg3xge008f1gdq53m57f61",
            "from_id": "pbd51edatctika2hzpr8dxss",
            "from_type": "Location",
            "to_id": "m01l08j6c5ypxdcaxgcoqiwd",
            "to_type": "Item",
            "alias": "Truhe",
            "campaign_id": "cmj78gm6k000004jrvzm7gcjr",
            "created_at": "2026-05-18T16:55:53.615000"
        },
        {
            "id": "cmpbg3xge008g1gdq6rfbb2ig",
            "from_id": "pbd51edatctika2hzpr8dxss",
            "from_type": "Location",
            "to_id": "knrfmjjqndy2rias3uztpls8",
            "to_type": "Location",
            "alias": "Marktplatz",
            "campaign_id": "cmj78gm6k000004jrvzm7gcjr",
            "created_at": "2026-05-18T16:55:53.615000"
        },
        {
            "id": "cmpbg3xge008h1gdqggdh7l7t",
            "from_id": "pbd51edatctika2hzpr8dxss",
            "from_type": "Location",
            "to_id": "m01l08j6c5ypxdcaxgcoqiwd",
            "to_type": "Item",
            "alias": "Tempeltruhe",
            "campaign_id": "cmj78gm6k000004jrvzm7gcjr",
            "created_at": "2026-05-18T16:55:53.615000"
        }
    ],
    "from": 1,
    "last_page": 31,
    "per_page": 20,
    "to": 20,
    "total": 615
}
