{
    "current_page": 1,
    "data": [
        {
            "created_at": "2026-05-22T12:19:24.787000",
            "updated_at": null,
            "id": "vsslu9kuuknvesv52tuutyyn",
            "name": "Night Hag Wald",
            "aliases": [
                "Mitte Der Lichtung",
                "Lichtung"
            ],
            "type": null,
            "description": "Der Wald ist ein Ort, in dem Lichter erscheinen und eine weibliche Stimme zu den Anwesenden spricht. Die Stimme begrüßt die Gruppe und wirft ihnen vor, den Wald geschändet zu haben. Ranken wachsen am Boden und fesseln die Gruppenmitglieder, die in die Mitte des Waldes geschoben werden. Die Stimme fordert bis zum nächsten Morgen drei humanoide Opfer und präzisiert, dass Seelen von Humanoiden verlangt seien, nicht von Tieren. Sie erwähnt, dass die zerstörte Larve den Preis erhöhen könne. Alternativ bietet sie die Seele eines unbekannten Wesens für die Freiheit der Gruppe an und zeigt ein Gefäß, in dem Seelen gebunden und handelbar sind. Die Stimme erklärt, dass sie offenbar nicht auf der Materialebene ist und betont, dass sie nicht allein auf diese Gruppe angewiesen sei. Die Begegnung endet abrupt, und die Gruppe wird aus dem Wald fortgerissen.",
            "image": null,
            "tcg_image": null,
            "campaign_id": "cmj78gm6k000004jrvzm7gcjr",
            "merge": false,
            "parent_id": null
        },
        {
            "created_at": "2026-05-22T12:19:24.312000",
            "updated_at": null,
            "id": "cq0z8sun87cpopu2wqifdmi8",
            "name": "Gehöft",
            "aliases": [
                "Bauernhof",
                "Hof",
                "Gehöft"
            ],
            "type": null,
            "description": "Das Gehöft ist ein brennendes Bauernhaus mit verbrannten Kohlkopffeldern, einem in Flammen stehenden Gehöft, einigen feuergegriffenen Bäumen und einem kleinen Häuschen, das ebenfalls Feuer gefangen hat. Die Umgebung ist offen und flach, ohne sichtbaren Wald. Teile des Gehöfts standen in Flammen, und die brennenden Felder sind vom Hügel über dem Gehöft aus gut sichtbar.\n\nAls die Gruppe den Hügel über dem Gehöft erreichte, begann das Häuschen zu brennen und war im Feuerschein des brennenden Hofs sichtbar. Die Gruppe beobachtete das brennende Häuschen vom Hügel aus zusammen mit den anderen brennenden Teilen des Geländes. \n\nAm Gehöft wurde ein vielbeiniges wurmartiges Wesen und eingeritzte Zeichen auf dem Körper von Nathalie gefunden, die tot aufgefunden wurde. Gwendolyn Silverflame stellte fest, dass nur das wurmartige Wesen stark magisch war. Surina begann, ein Grab für Nathalie zu schaufeln, als das wurmartige Wesen durch das Brennen getötet wurde. Surina legte Blumen zu Nathalie.\n\nDas Gehöft beim Bauernhof war Teil des brennenden Gehöfts. Teile des Schweinegatters standen in Flammen, und zwei verbliebene Schweine liefen aus dem Gatter. Die Gruppe beobachtete das brennende Gatter von einem Hügel oberhalb.",
            "image": null,
            "tcg_image": null,
            "campaign_id": "cmj78gm6k000004jrvzm7gcjr",
            "merge": true,
            "parent_id": null
        },
        {
            "created_at": "2026-05-21T13:29:19.281000",
            "updated_at": null,
            "id": "bv38x9x7n4dj6v9uyd3eivqt",
            "name": "Teilweise Zugefrorener Flusslauf",
            "aliases": [],
            "type": null,
            "description": "Der teilweise zugefrorene Flusslauf weist keine durchgehende Eisschicht auf. Große Eisschollen liegen auf dem Wasser, während dazwischen fließendes Wasser sichtbar ist. Das umliegende Gelände ist hügelig und verschneit, mit reflektierendem Schnee- und Eisgelände.\nDie Gruppe fuhr mit einem Schiff auf Kufen den Fluss entlang und legte am Abend an einem größeren Stein an. Nachts nutzte die Gruppe Licht zur Weiterfahrt. Später erschienen leuchtend blaue Augen im Schnee; ein Yeti blockierte die Route, wich jedoch auf eine andere Eisinsel aus, sodass die Gruppe passieren konnte.\nDie Gruppe traf auf drei Mammuts an einer Schneelücke, wo sich ein eingeschneites Mammut in einer Grube befand. In der Nähe wurde eine Wolfsmutter mit ihren Jungen gesehen. Vier bewaffnete Jäger erschienen bei der Grube; die Gruppe warnte, zog sich jedoch zurück und setzte die Fahrt fort.",
            "image": null,
            "tcg_image": null,
            "campaign_id": "cmj78gm6k000004jrvzm7gcjr",
            "merge": false,
            "parent_id": null
        },
        {
            "created_at": "2026-05-21T13:29:19.174000",
            "updated_at": null,
            "id": "kz8plngsrbvwosyx48onz2u6",
            "name": "Lonelywood",
            "aliases": [],
            "type": null,
            "description": "Lonelywood ist eine Stadt, die mit Holzfällern und Holzarbeitern in Verbindung gebracht wird. Sie ist auch der Herkunftsort von Jägern, die am Mammut-Fundplatz tätig sind.\nDie Jäger, unter dem Anführer Päckli Lomba, kümmern sich um das Mammut und übernehmen dessen Verarbeitung und Transport nach Lonelywood.",
            "image": null,
            "tcg_image": null,
            "campaign_id": "cmj78gm6k000004jrvzm7gcjr",
            "merge": false,
            "parent_id": null
        },
        {
            "created_at": "2026-05-21T13:29:19.069000",
            "updated_at": null,
            "id": "yao5ziciwkjaexipj0r3ecf3",
            "name": "Kelvin's Cairn",
            "aliases": [
                "Der Berg"
            ],
            "type": null,
            "description": "Kelvin's Cairn ist ein erhöhter Gelände, das als Hügel bekannt ist. Dîn-io bezeichnete Kelvin's Cairn als spezifischen Umwegpunkt und fragte, ob die Gruppe dort landen könnte. Naevys schätzte die Entfernung auf etwa 8 Meilen vom aktuellen Standort und rechnete, dass der Umweg die Strecke auf knapp 20 Meilen ausdehnen würde. Die Gruppe prüfte daraufhin ihre Vorräte und stellte fest, dass genug Proviant für zwei zusätzliche Tage vorhanden war. Sie entschieden sich, den Umweg nach Kelvin's Cairn anzutreten.\nKelvin's Cairn wird als Ursprung anhaltender Kälte und Dunkelheit benannt. Von dort geht eine Macht aus, die die Gegend kälter und lebensfeindlicher macht. Naevys versprach, die Gruppe zum Berg zu führen. Ihr schamanischer Vater warnte, dass sich die Lage täglich verschlechtere und Eile geboten sei. Die Gruppe besprach Reisestunden und logistische Probleme, insbesondere das lange Fortbringen von Naevys’ Clan und den beengten Platz im Boot.",
            "image": null,
            "tcg_image": null,
            "campaign_id": "cmj78gm6k000004jrvzm7gcjr",
            "merge": true,
            "parent_id": null
        },
        {
            "created_at": "2026-05-21T13:29:18.749000",
            "updated_at": null,
            "id": "y4ibdbycnt8e3jc1j6vjqb2b",
            "name": "Revel's End",
            "aliases": [
                "Zellenebene"
            ],
            "type": null,
            "description": "Revel's End ist ein Raum im Gefängnis, das sich in einer kalten Region befindet. Der Raum ist mit zwei Fässern an der Wand ausgestattet, die Wasser enthalten. Er enthält eine rund sieben Fuß durchmessende Metallkugel und hat eine quadratische Öffnung in der Decke von etwa 10×10 Fuß. Das Gefängnis selbst ist eine Anlage mit Zellen, einer schmalen Wendeltreppe, verschlossenen Türen und einem oberen Raum, von dem die Zellen gesteuert werden. In einem Nebenraum steht eine große Metallkugel, und es gibt eine quadratische Öffnung in der Decke über diesem Raum.\nDie Gruppe fand sich in einem geschlossenen Raum wieder und identifizierte den Ort als Revel's End. Dîn-io musste sich nach der Ankunft übergeben. Der Raum hatte einen Zugang, durch den nur ein schmaler Gang sichtbar war. Dîn-io kletterte eine Leiter hinauf und erreichte einen Turm, von dem aus er eine Landungs- und Krananlage, Brückenteile, einen weiteren schmalen höheren Turm und nahe Klippen sehen konnte. Im Raum fanden sie gewöhnliche Lebensmittel. Im Gefängnis funktionierte Magie nicht, und die Tür der Zelle ließ sich trotz drehendem Schlüssel nicht öffnen, da sie durch eine magische Verriegelung gesichert war. Die Gruppe ruhte sich aus und erkundete das Gefängnis weiter. Surina entdeckte um eine Ecke einen einzelnen Ork als Wache. Sie legte einen Hinterhalt, stürmte vor und tötete den Ork mit einem Stich in die Brust bis zur Kehle. Der Leichnam und die Axt fielen laut zu Boden, und die Gruppe versuchte, den Leichnam unauffällig zu ziehen. Orcs patrouillierten auf denselben Routen.\nKurz darauf öffnete der Aufseher einen bislang verschlossenen Nebenraum und stellte die magische Unterdrückung im Gefängnis ab. Danach wurde die Kugel per Ringmagie aufgenommen, und die Gruppe nahm ihre Ausrüstung und verließ das Gefängnis. Die Revel's End ist die Ebene des Gefängnisses, auf der sich die Zellen und die befreiten Gefangenen befinden. Die Gruppe traf dort zusammen. Brennen begegnete einem Riesen, der angab, in einer Zelle eingesperrt gewesen zu sein, bis seine Magie zurückgekehrt sei, und der sich weigerte zu kämpfen. Dîn-io fand eine besetzte Zelle, schloss sie auf und befreite einen Zwerg, der daraufhin weitere Zellen öffnete. Nach und nach wurden mehrere Zwerge, ein Mensch, eine ältere Elfe und ein voll gerüsteter Hund befreit. Zudem wurde der Gefängnisdirektor befreit, der Informationen über die Übernahme durch Orks gab. Die Gruppe versammelte sich nach den Kämpfen erneut auf der Revel's End mit dem Gefängnisdirektor.",
            "image": null,
            "tcg_image": null,
            "campaign_id": "cmj78gm6k000004jrvzm7gcjr",
            "merge": true,
            "parent_id": null
        },
        {
            "created_at": "2026-05-18T16:51:46.584000",
            "updated_at": null,
            "id": "mzmcgsnfs8kwhra2q97lohyh",
            "name": "Schiff",
            "aliases": [],
            "type": null,
            "description": "Das Schiff ist beschädigt und hat aktuell Kufen angebracht. Es wird geprüft, ob es wieder schwimmen kann. Ein Schiffszimmermann führt die Gruppe zum Schiff und plant, die Kufen abzunehmen und das Schiff zu prüfen. Surina geht kurz an Bord und füttert das zur Crew gehörende Walross. Die Gruppe diskutiert über Preis und Aufteilung der Kosten und zahlt dem Schiffszimmermann schließlich den vereinbarten Betrag. Der Schiffszimmermann nimmt das Geld an, wünscht gute Fahrt und kehrt in die Stadt zurück.",
            "image": null,
            "tcg_image": null,
            "campaign_id": "cmj78gm6k000004jrvzm7gcjr",
            "merge": false,
            "parent_id": null
        },
        {
            "created_at": "2026-05-18T16:51:46.504000",
            "updated_at": null,
            "id": "aed3w1wlauo351yhkagk49g8",
            "name": "Vulkan",
            "aliases": [],
            "type": null,
            "description": "Der Vulkan ist eine geografische Erhebung, an dessen Hängen noch glühende Lava sichtbar ist. Dunkle Wolken hängen über der Region, während gelegentlich Asche fällt. Die rote Leuchtkraft der Lava ist an den Außenhängen sichtbar.",
            "image": null,
            "tcg_image": null,
            "campaign_id": "cmj78gm6k000004jrvzm7gcjr",
            "merge": false,
            "parent_id": null
        },
        {
            "created_at": "2026-05-18T16:51:46.425000",
            "updated_at": null,
            "id": "ciq62riyyfc0npr586pxfsps",
            "name": "Zellen der Stadtwache",
            "aliases": [
                "Zellen"
            ],
            "type": null,
            "description": "Die Zellen der Stadtwache sind Gewahrsamsräume, in denen festgehaltene Personen bis zur Klärung von Unstimmigkeiten untergebracht werden. Zwischen den beiden Verwahrplätzen befindet sich eine dünne Zwischenwand, sodass die Insassen praktisch nebeneinander liegen. Nach einem Vorfall in der Kirche wurden Naevys Nerizana und Brennan in getrennten Zellen untergebracht. Eine Hohepriesterin führte dort Handbewegungen aus und sprach unverständliche Worte, woraufhin Naevys und Brennan rasch aufgetaut wurden. Sie blieben bis nach Sonnenaufgang in Gewahrsam, bis eine Stadtwache die Zellentür öffnete und sie die Zellen verlassen durften.",
            "image": null,
            "tcg_image": null,
            "campaign_id": "cmj78gm6k000004jrvzm7gcjr",
            "merge": false,
            "parent_id": null
        },
        {
            "created_at": "2026-05-18T16:51:46.344000",
            "updated_at": null,
            "id": "knrfmjjqndy2rias3uztpls8",
            "name": "Marktplatz",
            "aliases": [],
            "type": null,
            "description": "Der Marktplatz dient als Durchgangsweg zwischen der Kirche und den Hotelzimmern.",
            "image": null,
            "tcg_image": null,
            "campaign_id": "cmj78gm6k000004jrvzm7gcjr",
            "merge": false,
            "parent_id": null
        },
        {
            "created_at": "2026-05-18T16:51:46.182000",
            "updated_at": null,
            "id": "nb4difgtwfij9jftajhqea76",
            "name": "Taverne",
            "aliases": [],
            "type": null,
            "description": "Die Taverne ist ein Gasthaus mit Zimmern. Die Gruppe trug nacheinander eingefrorene Personen über den Marktplatz in Tücher zur Taverne, wo mehrere Gruppenmitglieder unterkamen. Die Hohepriesterin begleitete Gwendolyn und Dîn-io zur Taverne, wo es Verwirrung um die richtige Tür gab. Gwendolyn öffnete die richtige Tür, und die Gruppe erreichte Brennan. Später legten Surina und Dîn-io sich in der Taverne schlafen. Nach Sonnenaufgang kehrten Naevys und Brennan aus der Gewahrsamszelle in ihr Zimmer in der Taverne zurück und fanden Surina und Dîn-io schlafend vor. Surina ging kurz in die Taverne, um dem Walross Futter zu bringen.",
            "image": null,
            "tcg_image": null,
            "campaign_id": "cmj78gm6k000004jrvzm7gcjr",
            "merge": false,
            "parent_id": null
        },
        {
            "created_at": "2026-05-18T16:51:46.085000",
            "updated_at": null,
            "id": "pbd51edatctika2hzpr8dxss",
            "name": "Tempel",
            "aliases": [
                "Kirche"
            ],
            "type": null,
            "description": "Der Tempel ist ein Kirchengebäude mit einer Treppe an der Vorderseite, einem Raum mit ornamentiertem Kirchenfenster und einem verborgenen Bereich, in dem eine verschlossene Truhe mit Bannmagie und ein Buch gefunden wurden. Die Hohepriesterin und Priesterinnen gehören zum Tempelpersonal.\nNachts drang eine Gruppe in den Tempel ein, schloss die Tür und öffnete eine verschlossene Tür ins Verborgene, wo sie das Buch und die Truhe fand. Das Öffnen des Buches ließ drei Gruppenmitglieder einfrieren. Die Eingefrorenen wurden über den Marktplatz in Tavernenzimmer gebracht. Die Hohepriesterin empfing die Gruppe auf den Tempeltreppen, informierte die Stadtwache, verhörte Surina telepathisch, stellte Bedingungen zur Rückgabe entwendeter Gegenstände und bot das Auftauen an. Vor Morgengrauen wurden die Gegenstände durch ein Kirchenfenster mithilfe einer kleinen Wolke in die Tempeltruhe zurückgebracht. Nach Sonnenaufgang kümmerte der Tempel sich um Naevys und Brennan.",
            "image": null,
            "tcg_image": null,
            "campaign_id": "cmj78gm6k000004jrvzm7gcjr",
            "merge": false,
            "parent_id": null
        },
        {
            "created_at": "2026-05-13T20:01:06.486000",
            "updated_at": null,
            "id": "xs5x4fz3qp1i6uvcrfrof2w1",
            "name": "Luftschiff",
            "aliases": [
                "Luftschiff (die Abholung)"
            ],
            "type": null,
            "description": "Das Luftschiff ist ein fliegendes Gefährt, das über dem Gelände schwebt und mit Annehmlichkeiten wie einer Toilette ausgestattet ist. Es bietet Platz für die Besatzung und die Reisenden. An Bord wird eine Mahlzeit serviert, die aus Kartoffeln, Wildbraten, Möhren-Rüben-Gemüse und Bier besteht. Die Besatzung sorgt für die Verpflegung der Passagiere.\nDas Luftschiff senkt sich über das Gelände und lässt Strickleitern herab, um die Gruppe an Bord zu holen. Es fliegt direkt zur Festung zurück.",
            "image": null,
            "tcg_image": null,
            "campaign_id": "cmj78gm6k000004jrvzm7gcjr",
            "merge": false,
            "parent_id": null
        },
        {
            "created_at": "2026-04-30T13:49:34.167000",
            "updated_at": null,
            "id": "sncppk1npiaayv179fi58177",
            "name": "Nahegelegene Hütte mit Feuerstelle",
            "aliases": [
                "Hütte"
            ],
            "type": null,
            "description": "Die Hütte mit Feuerstelle dient der Gruppe als Unterkunft und bietet Platz für die Übernachtung. Sie ist stabil gebaut und befindet sich auf einer mittelgroßen Flussinsel, die die Gruppe bei Einbruch der Dämmerung erreicht hat. Nach dem Sieg über den Aklut führt der Pinguin die Gruppe zur Hütte und bietet an, dort zu übernachten. In der Hütte häutet und zerlegt die Gruppe den Aklut, bereitet Fleisch zum Essen zu und sammelt wertvolle Materialien wie Zähne, Krallen und das zähe Leder. Am Abend vollendet Dîn-io Tempest eine Schnitzarbeit und schenkt Surina Nemmonis einen kleinen Bären-Anhänger. Der Pinguin verlässt die Hütte kurz, um sein größeres, Stählernes Schiff durch das Eis zur Insel zu bringen. Surina Nemmonis geht mit dem Pinguin an Bord, wo sie eine Crew aus mehreren Pinguinen, einem Hai und einigen Enten sieht. Der Pinguin, der sich als Admiral des Schiffs vorstellt, bietet an, die Gruppe zur Insel mit dem Hort von Ava Charus zu bringen.\nSpäter, in einer anderen Hütte, die als die Große Hütte bekannt ist, lebt Naevys’ schamanischer Vater. Diese Hütte ist warm und bewohnbar, jedoch ist die Einrichtung, das Geschirr und die Portionen deutlich größer als für Orks oder die Gruppe, was darauf hindeutet, dass das Haus ursprünglich den riesenhaften Gestalten gehörte. Naevys und ihr Clan gingen in die Große Hütte, wo Naevys ihren Naevys Nerizana unterstützte. Ihr Vater berichtete, dass die Kälte ihm zu schaffen machte. Die Anwesenden stellten fest, dass die Bewohner des Hauses offenbar getötet worden waren. Naevys bat um eine Totenwache und Bestattung der im Haus Getöteten, und ihr Vater stimmte zu, sie draußen mit den eigenen Toten aufzubahren und gemeinsam zu verbrennen. Die Gruppe verbrachte den Rest des Tages mit Arbeiten außerhalb, während Teile der Gemeinschaft in und bei der Hütte blieben.\nIn der Warme Hütte, die ebenfalls für riesenhafte Gestalten ausgelegt ist, kam es zu einer Auseinandersetzung über die getöteten riesenhaften Bewohner. Naevys’ Vater erklärte, dass die zunehmende Kälte ihm auf die alten Knochen schlage, er jedoch nicht ernsthaft krank sei. Naevys sprach mit ihrem Naevys Nerizana über die anhaltende Dunkelheit und Kälte. Ihr Vater äußerte, dass aller Wahrscheinlichkeit nach eine Macht vom Berg dahinter stecke und die Lage mit jedem Tag schlimmer werde.",
            "image": null,
            "tcg_image": null,
            "campaign_id": "cmj78gm6k000004jrvzm7gcjr",
            "merge": true,
            "parent_id": null
        },
        {
            "created_at": "2026-04-30T13:49:34.147000",
            "updated_at": null,
            "id": "ltswe4nz58hbj1evvnpbh36a",
            "name": "Mittelgroße Flussinsel",
            "aliases": [
                "Insel"
            ],
            "type": null,
            "description": "Die Flussinsel ist eine seichte und flache Sandbank, umgeben von Bäumen. Sie kann in etwa einer Viertelstunde bis einer halben Stunde umrundet werden.\nDie Insel ist von verschiedenen Wildtieren bewohnt. Ein Pinguin näherte sich der Gruppe und führte sie an den vereisten Strand, wo sie eine frisch gerissene Robbe als Spur eines Aklut entdeckten. Nach einem Kampf gegen den Aklut bot der Pinguin der Gruppe eine Nahegelegene Hütte mit Feuerstelle an, wo sie übernachten konnten. Die Gruppe häutete und zerlegte den Aklut und bereitete das Fleisch zum Essen vor. Der Pinguin ließ sein größeres, Stählernes Schiff durch das Eis zur Insel brechen und anlegen.",
            "image": null,
            "tcg_image": null,
            "campaign_id": "cmj78gm6k000004jrvzm7gcjr",
            "merge": false,
            "parent_id": null
        },
        {
            "created_at": "2026-04-30T13:49:34.127000",
            "updated_at": null,
            "id": "d493mcl61sjqyev9c3sg4bt9",
            "name": "Hort von Arveiaturace",
            "aliases": [
                "Drachenhort",
                "Ava Charus’ Hort"
            ],
            "type": null,
            "description": "Der Hort von Ava Charus befindet sich auf einer Insel in der offenen See. Diese Region ist bekannt dafür, dass seit zweihundert Jahren kein Schiff die Passage zu diesem Hort erfolgreich durchqueren konnte. Der weiße Drache Ava Charus, der die Sonne verdunkeln kann, ist die Herrin dieses Ortes.\n\nEin großer weißer Drache überfliegt eine Gruppe auf einem Boot und beschädigt mit seiner Schwanzspitze den Segelmast. Der Drache erklärt, dass man nur in seinem Hort mit ihm sprechen könne, bevor er in Richtung Südwesten davonflog. Später wird die Gruppe von einem Pinguin, der sich als Admiral eines Schiffs vorstellt, zu dem Hort eingeladen. Der Admiral warnt sie vor den Gefahren der Passage und bietet an, sie zur Insel zu bringen, wo Ava Charus lebt.",
            "image": null,
            "tcg_image": null,
            "campaign_id": "cmj78gm6k000004jrvzm7gcjr",
            "merge": false,
            "parent_id": null
        },
        {
            "created_at": "2026-04-15T19:43:10.177000",
            "updated_at": null,
            "id": "e6ksdp72czh6gn9osb3v932g",
            "name": "Aglarond",
            "aliases": [],
            "type": null,
            "description": "Agloron ist ein Ort, der mit einem obsidianen Würfel in Verbindung steht, der als nahezu mythisch beschrieben wird. Der Würfel entzieht dauerhaft den Besitz und wird in Berichten erwähnt, die Agloron, Rogarsheim und Calimshan betreffen.\n\nDie Region Agloron hat historische Verbindungen zur Anauroch-Wüste, die seit dem Fall des magokratischen Imperiums der Netheril vor etwa 1700–1800 Jahren zur Wüste wurde. In der Bibliothek wurde ein Buch über den obsidianen Würfel gefunden, das ihn als Rubycon bezeichnet und darauf hinweist, dass es bisher niemandem gelungen ist, ihn in Besitz zu nehmen. Die Berichte über den Würfel stammen aus verschiedenen Orten, darunter Agloron, und es gibt Hinweise auf Verbindungen zu zwielichtigen Gruppen und Relikten früherer Zeiten.",
            "image": null,
            "tcg_image": null,
            "campaign_id": "cmj78gm6k000004jrvzm7gcjr",
            "merge": false,
            "parent_id": null
        },
        {
            "created_at": "2026-04-15T19:43:10.159000",
            "updated_at": null,
            "id": "e150s5wipvh8td1nltpdp8jz",
            "name": "Anauroch",
            "aliases": [],
            "type": null,
            "description": "Die Anauroch-Wüste ist eine Region, die seit dem Fall des magokratischen Imperiums der Netheril vor etwa 1700 bis 1800 Jahren zur Wüste wurde. Vor rund 100 Jahren kehrte eine kleine Enklave von Netheril zurück. Die Wüste ist von verschiedenen zwielichtigen Gruppen und Relikten früherer Zeiten geprägt.\n\nDie Region ist von Mythen umgeben, und es gibt Hinweise auf den Obsidianwürfel, der als nahezu mythisch beschrieben wird. Ein Bericht über den Würfel stammt aus der Anauroch-Wüste.",
            "image": null,
            "tcg_image": null,
            "campaign_id": "cmj78gm6k000004jrvzm7gcjr",
            "merge": false,
            "parent_id": null
        },
        {
            "created_at": "2026-04-15T19:43:10.140000",
            "updated_at": null,
            "id": "navt5kwedtkxt19edoawso53",
            "name": "Liam’s Hold",
            "aliases": [],
            "type": null,
            "description": "Liam’s Hold ist das Anwesen des ältesten Hauses, Haus Floshin, im Dellenbier-Tal in der Savage Frontier. Es ist mit den Gold- und Sonnenelfen assoziiert und gilt als bedeutender Sitz der Familie Floshin. Liam’s Hold ist als Stammsitz von Haus Floshin bekannt und steht im Zusammenhang mit den ältesten Häusern Faerûns.",
            "image": null,
            "tcg_image": null,
            "campaign_id": "cmj78gm6k000004jrvzm7gcjr",
            "merge": false,
            "parent_id": null
        },
        {
            "created_at": "2026-04-15T19:43:10.103000",
            "updated_at": null,
            "id": "wa759nfvbe3n2hnmk4mrwrfm",
            "name": "Delimbiyr Vale",
            "aliases": [],
            "type": null,
            "description": "Das Dellenbier-Tal liegt in der Savage Frontier und ist der Sitz von Haus Floshin, einem der ältesten Häuser Faerûns. Das Anwesen von Haus Floshin wird als \"Liam’s Hold\" bezeichnet.\n\nHaus Floshin ist Gold- oder Sonnenelfen zugeordnet. In der Bibliothek wurden Informationen über die ältesten Häuser Faerûns, darunter Haus Borderen und Haus Belisare, gefunden. Das Buch über die ältesten Häuser wird von der Herzogin und hiesigen Adligen ausgeliehen.",
            "image": null,
            "tcg_image": null,
            "campaign_id": "cmj78gm6k000004jrvzm7gcjr",
            "merge": false,
            "parent_id": null
        }
    ],
    "from": 1,
    "last_page": 6,
    "per_page": 20,
    "to": 20,
    "total": 111
}
