{
    "current_page": 1,
    "data": [
        {
            "created_at": "2026-05-22T13:55:28.597000",
            "updated_at": null,
            "id": "iu58zy2d71svccr6btofib7k",
            "character_name": "Der Riese",
            "character_alias": null,
            "character_aliases": [
                "Ein Riese",
                "Einen Riesen"
            ],
            "player_name": null,
            "player_handle": null,
            "player": null,
            "description": "Der Riese ist ein Individuum, das in einer Zelle auf der Zellenebene eingesperrt war, bis seine Magie plötzlich zurückkehrte.\nChronologie: Brennen traf den Riesen auf der Zellenebene. Der Riese erklärte, dass er in einer Zelle eingesperrt gewesen sei, bis seine Magie zurückkehrte. Auf die Aufforderung, mit der Gruppe zu kämpfen, lehnte Der Riese ab und sagte, er sei bereits frei. Er begann zu schweben und glitt nach oben davon.",
            "backstory": null,
            "type": "NPC",
            "image": null,
            "tcg_image": null,
            "campaign_id": "cmj78gm6k000004jrvzm7gcjr",
            "merge": false
        },
        {
            "created_at": "2026-05-22T12:19:23.945000",
            "updated_at": null,
            "id": "uubep7ty22zvyyjk4xhagon1",
            "character_name": "Ork",
            "character_alias": null,
            "character_aliases": [
                "Einzelner Ork",
                "Ork (wache)"
            ],
            "player_name": null,
            "player_handle": null,
            "player": null,
            "description": "Ein Ork stand als Wache vor einer Tür und führte eine Axt mit sich.\nSurina Nemmonis stürmte vor, traf den Ork und stach ihm in den oberen Brustbereich, schlitzte bis zur Kehle. Der Ork fiel tot zu Boden, und sowohl sein Körper als auch die Axt fielen scheppernd zu Boden. Die Gruppe versuchte, den toten Ork unauffällig zu halten und wegzuziehen.",
            "backstory": null,
            "type": "NPC",
            "image": null,
            "tcg_image": null,
            "campaign_id": "cmj78gm6k000004jrvzm7gcjr",
            "merge": false
        }
    ],
    "from": 1,
    "last_page": 74,
    "per_page": 2,
    "to": 2,
    "total": 147
}
