{
    "current_page": 1,
    "data": [
        {
            "created_at": "2026-05-21T13:29:18.082000",
            "updated_at": null,
            "id": "zkcx9osgz2rnddizsx31gd87",
            "character_name": "Yeti",
            "character_alias": null,
            "character_aliases": [],
            "player_name": null,
            "player_handle": null,
            "player": null,
            "description": "Der Yeti hat leuchtend blaue Augen und liegt im Schnee, wodurch er sichtbar ist.\nDie Gruppe entdeckte ihn nachts im Schnee. Er tauchte aus dem Schnee auf, schüttelte sich den Schnee ab und brüllte die Gruppe an. Surina ging auf ihn zu und entschuldigte sich. Dîn-io setzte Magie ein, um den Yeti zu verwirren. Der Yeti blieb kurz stehen, wirkte unschlüssig und lief dann auf eine andere Eisinsel hinüber, wodurch der Weg freier wurde. Während er abgelenkt war, schnitt Dîn-io Pflanzen am Ufer. Später sichtete die Gruppe einen zweiten Yeti in der Nähe und passierte beide.",
            "backstory": null,
            "type": "NPC",
            "image": null,
            "tcg_image": null,
            "campaign_id": "cmj78gm6k000004jrvzm7gcjr",
            "merge": false
        },
        {
            "created_at": "2026-05-21T13:29:17.976000",
            "updated_at": null,
            "id": "vxq8ytn9shzehe5dylppp447",
            "character_name": "Wolfsmutter",
            "character_alias": null,
            "character_aliases": [
                "Wölfin"
            ],
            "player_name": null,
            "player_handle": null,
            "player": null,
            "description": "Die Wolfsmutter ist eine Wölfin, die mit ihrem Wurf von drei Jungen in der Nähe der Gruppe auftauchte.\nNaevys näherte sich und sprach kurz mit der Wolfsmutter. Ein Welpe lief beim Näherkommen hinter die Mutter. Die Wolfsmutter warnte, dass mit dem Mammut unten etwas nicht stimme, und erwähnte, dass es Tiere in der Gegend gebe, die einen Fluch weitergeben könnten. Naevys gab der Wolfsmutter etwas Trockenfleisch für sie und die Jungen. Die Wolfsmutter nahm die Welpen an und zog sich mit ihnen zurück.",
            "backstory": null,
            "type": "NPC",
            "image": null,
            "tcg_image": null,
            "campaign_id": "cmj78gm6k000004jrvzm7gcjr",
            "merge": false
        },
        {
            "created_at": "2026-05-21T13:29:17.868000",
            "updated_at": null,
            "id": "t841a97n2ielxqcvtnxp8cea",
            "character_name": "Päckli Lomba",
            "character_alias": null,
            "character_aliases": [],
            "player_name": null,
            "player_handle": null,
            "player": null,
            "description": "Päckli Lomba ist der Anführer einer Gruppe bewaffneter Jäger aus Lonelywood.\nEr trat mit drei Gefährten bei der Falle am Mammut auf und erklärte, das gefangene Tier sei ihre Beute. Er sagte, sie wollten Fell, Fleisch und Stoßzähne verwerten, bezeichnete den Fluch am Mammut als nicht ansteckend und wies Rückfragen zurück. Päckli Lomba erklärte, ihm sei wichtiger, Fleisch und Fell zu bekommen, als die Stadt zu retten, und forderte, man solle die Jäger ihre Beute erledigen lassen. Danach begannen die Jäger, am Mammut zu arbeiten und es in der Grube zu behandeln.",
            "backstory": null,
            "type": "NPC",
            "image": null,
            "tcg_image": null,
            "campaign_id": "cmj78gm6k000004jrvzm7gcjr",
            "merge": false
        },
        {
            "created_at": "2026-05-21T13:29:17.758000",
            "updated_at": null,
            "id": "b1enrw25w1cbngrghpmqutl4",
            "character_name": "Gefängnisaufseher",
            "character_alias": null,
            "character_aliases": [
                "Aufseher",
                "Gefängnisaufseher"
            ],
            "player_name": null,
            "player_handle": null,
            "player": null,
            "description": "Der Gefängnisaufseher ist eine Aufsichtsperson des Gefängnisses, die hinter der Tür sprach und die Gruppe durch verschlossene Türen in den Revel's End führte. Er begleitete die Gruppe zum Raum mit der Kugel und blieb daneben stehen, während sie versuchten, die Kugel herauszubekommen. Auf die Bitte der Gruppe, die Magie wieder zuzulassen, lehnte er ab und erklärte, dass es für ihn dann nicht mehr lustig wäre. \n\nEr führte die Gruppe in die Revel's End zu zwei Wasserfässern, nahm eine Wette an, hielt Dîn-io während des Wettkampfs am Nacken unter Wasser und ließ ihn auf Bitte der Gruppe schließlich los. Er erklärte, die Gruppe hätte die Kugel von Anfang an herausbekommen können, wenn sie gefragt hätten, und öffnete kurz darauf den bislang verschlossenen Nebenraum, um die magische Unterdrückung abzuschalten. Vor dem Aufbruch bot er Handwerkssachen und wetterfeste Mäntel an, die die Gruppe mitnahm.",
            "backstory": null,
            "type": "NPC",
            "image": null,
            "tcg_image": null,
            "campaign_id": "cmj78gm6k000004jrvzm7gcjr",
            "merge": false
        },
        {
            "created_at": "2026-05-21T13:29:17.652000",
            "updated_at": null,
            "id": "u97a1uuq5co6x98f752yh8pa",
            "character_name": "Zwerg",
            "character_alias": null,
            "character_aliases": [],
            "player_name": null,
            "player_handle": null,
            "player": null,
            "description": "Der Zwerg stand draußen bei einem Schiff Mit Kufen. Er erklärte, das Schiff solle bis zur nächsten Stadt halten, auch wenn eine gründlichere Stabilisierung länger dauern würde, und bot an, am Bau und der Stabilisierung zu arbeiten.\nBeim Ausstieg sprach der Zwerg mit Surina und warnte sie vor einer sehr alten weißen Drachin namens Aveachurus. Er sagte, man könne mit der Drachin reden, sie sei aber außerordentlich gefährlich, und riet Surina, ihr gegenüber kleinlaut zu sein.",
            "backstory": null,
            "type": "NPC",
            "image": null,
            "tcg_image": null,
            "campaign_id": "cmj78gm6k000004jrvzm7gcjr",
            "merge": false
        },
        {
            "created_at": "2026-05-18T16:51:45.629000",
            "updated_at": null,
            "id": "ndlpnkq6tc0lo8p6l563i2sk",
            "character_name": "Zwergenschmied",
            "character_alias": null,
            "character_aliases": [],
            "player_name": null,
            "player_handle": null,
            "player": null,
            "description": "Der Zwergenschmied übergab der Gruppe einen Stab, dessen eingearbeitete Stacheln mit der Essenz von Eiskräutern versehen waren. Er erklärte, dass er nicht genau wisse, welche weiteren Eigenschaften der Stab habe. Beim Zusammentreffen mit der Gruppe erläuterte der Zwerg diese Details erneut und wurde als erledigter Ansprechpartner vermerkt.",
            "backstory": null,
            "type": "NPC",
            "image": null,
            "tcg_image": null,
            "campaign_id": "cmj78gm6k000004jrvzm7gcjr",
            "merge": false
        },
        {
            "created_at": "2026-05-18T16:51:45.550000",
            "updated_at": null,
            "id": "t9twza7vx6ue8m1qlp4koszl",
            "character_name": "Apothekerin",
            "character_alias": null,
            "character_aliases": [],
            "player_name": null,
            "player_handle": null,
            "player": null,
            "description": "Die Apothekerin betreibt eine Apotheke. Gwendolyn Silverflame arbeitete bei ihr und erhielt ein Travel Alchemical Kit. Die Stadtwache untersuchte diverse Bücher und weitere Gegenstände aus der Apotheke, darunter Gwendolyns Zauberbuch, ließ Gwendolyn jedoch die Gegenstände während der Durchsicht behalten. Die Apothekerin wurde als mögliche Abnehmerin für Eisspinnenhaar genannt.",
            "backstory": null,
            "type": "NPC",
            "image": null,
            "tcg_image": null,
            "campaign_id": "cmj78gm6k000004jrvzm7gcjr",
            "merge": false
        },
        {
            "created_at": "2026-05-18T16:51:45.459000",
            "updated_at": null,
            "id": "h9tuo3tk6n5ejkix21zrd9n4",
            "character_name": "Holzarbeiter",
            "character_alias": null,
            "character_aliases": [],
            "player_name": null,
            "player_handle": null,
            "player": null,
            "description": "Holzarbeiter: Ein Handwerker, bei dem Dîn-io Arbeit fand.\nDîn-io arbeitete mehrere Tage für den Holzarbeiter und erhielt dafür Woodcarver’s Tools sowie zusätzlichen Lohn.",
            "backstory": null,
            "type": "NPC",
            "image": null,
            "tcg_image": null,
            "campaign_id": "cmj78gm6k000004jrvzm7gcjr",
            "merge": false
        },
        {
            "created_at": "2026-05-18T16:51:45.379000",
            "updated_at": null,
            "id": "zpj6xsk09xm7kro9scl49ab4",
            "character_name": "Schiffszimmermann",
            "character_alias": null,
            "character_aliases": [],
            "player_name": null,
            "player_handle": null,
            "player": null,
            "description": "Der Schiffszimmermann führte die Gruppe zum Schiff. Er erklärte, dass er die Kufen abnehmen und prüfen wolle, ob das Schiff wieder schwimmen könne. Später nahm er den von der Gruppe vereinbarten Betrag an, wünschte der Gruppe eine gute Fahrt und ging zurück in die Stadt.",
            "backstory": null,
            "type": "NPC",
            "image": null,
            "tcg_image": null,
            "campaign_id": "cmj78gm6k000004jrvzm7gcjr",
            "merge": false
        },
        {
            "created_at": "2026-05-18T16:51:45.300000",
            "updated_at": null,
            "id": "zxz64shu1ak6ndgj336lry24",
            "character_name": "Tempeldienerin",
            "character_alias": null,
            "character_aliases": [
                "anwesende Tempeldienerin"
            ],
            "player_name": null,
            "player_handle": null,
            "player": null,
            "description": "Die Tempeldienerin war nachts im Tempel anwesend und als Beobachterin der Vorgänge tätig. Als Surina plötzlich vom Eis befreit wurde, zeigte die Tempeldienerin sichtbare Überraschung und rief nach der Hohepriesterin.",
            "backstory": null,
            "type": "NPC",
            "image": null,
            "tcg_image": null,
            "campaign_id": "cmj78gm6k000004jrvzm7gcjr",
            "merge": false
        },
        {
            "created_at": "2026-05-18T16:51:45.054000",
            "updated_at": null,
            "id": "r2k0srsuvhwby6zystohtuza",
            "character_name": "Hohepriesterin",
            "character_alias": null,
            "character_aliases": [
                "Eine Hohepriesterin",
                "Hohepriesterin"
            ],
            "player_name": null,
            "player_handle": null,
            "player": null,
            "description": "Die Hohepriesterin des Tempels informierte die Stadtwache über den Vorfall und trat als Vertreterin des Tempels auf. Sie erschien auf den Stufen des Tempels und begleitete Gwendolyn Silverflame sowie Dîn-io zur Taverne. Die Hohepriesterin kann telepathisch mit anderen sprechen und forderte eine Erklärung zu den eingefrorenen Personen. Sie sprach telepathisch mit Brennan und später mit Surina Nemmonis, wobei sie Surina zu Anzahl, Aussehen und Kampf befragte. \n\nDie Hohepriesterin entschied, die drei anderen vorübergehend bei der Stadtwache zu behalten, bis eine Durchsuchung stattfand, und bot an, sie in den Zellen aufzutauen. Sie konfrontierte Surina telepathisch mit dem Diebstahl aus dem Tempel und stellte in Aussicht, Surina aufzutauen, falls die entwendeten Gegenstände bis zum Morgengrauen zurückgebracht würden. Sie erklärte, das Einfrieren sei ein Schutzzauber, und sagte, der Tempel werde sich um Naevys Nerizana und Brennan kümmern. \n\nSpäter veranlasste eine Hohepriesterin in den Zellen Handbewegungen und Worte, die Naevys und Brennan schnell auftauten. Sie erteilte Dîn-io und Surina die Erlaubnis zu gehen und warnte sie, der Stadtwache nicht im Weg zu stehen.",
            "backstory": null,
            "type": "NPC",
            "image": null,
            "tcg_image": null,
            "campaign_id": "cmj78gm6k000004jrvzm7gcjr",
            "merge": false
        },
        {
            "created_at": "2026-05-13T20:01:06.089000",
            "updated_at": null,
            "id": "nk8edfqlscbs36u6b1qfbc3k",
            "character_name": "Höllenhund",
            "character_alias": null,
            "character_aliases": [],
            "player_name": null,
            "player_handle": null,
            "player": null,
            "description": "Der Höllenhund ist ein humanoides Wesen, das in schwarz-rot gekleidete Anführer und mehrere schlicht gekleidete Schreiber begleitet. Er hat eine große, imposante Erscheinung und wird als Teil einer Gruppe infernalischer Kreaturen wahrgenommen. Der Höllenhund schnüffelt durch die Reihen der Verletzten und setzt sich bei einigen von ihnen ab. Bei diesen Personen kommt ein Schreiber hinzu, fragt nach dem Namen und streicht ihn von seiner Liste. Anschließend erscheinen Ketten aus einer kleinen schwarzen Kiste, die sich um die markierte Person wickeln und sie fortziehen.\nSurina Nemmonis zeigt eine besondere Faszination für den Höllenhund und äußert den Wunsch, einen solchen ins Team zu holen. Sie fragt, wie viele Seelen sie auftreiben müsste, um einen Höllenhund zu bekommen, und erfährt, dass sie 58 Seelen beschaffen müsse, wobei unschuldige Seelen wertvoller seien. Der infernalische Kommandant erklärt, dass das passende Gerät zur Seelenfängung bereitgestellt werde und dass es innerhalb von 30 Sekunden nach einem Tod aktiviert werden müsse. Surina zeigt sich von der Aussicht auf Höllenhunde und ein Wiedersehen mit einer Person namens Ried stark versucht, entscheidet sich jedoch letztendlich gegen einen Deal.",
            "backstory": null,
            "type": "NPC",
            "image": null,
            "tcg_image": null,
            "campaign_id": "cmj78gm6k000004jrvzm7gcjr",
            "merge": false
        },
        {
            "created_at": "2026-05-13T20:01:06.072000",
            "updated_at": null,
            "id": "cccvcnduycrugwdq96dlz9fs",
            "character_name": "Infernalischer Kommandant",
            "character_alias": null,
            "character_aliases": [
                "großer gepanzerter Vorgesetzter"
            ],
            "player_name": null,
            "player_handle": null,
            "player": null,
            "description": "Der infernalische Kommandant ist ein humanoides Wesen in schwarz-rot gekleideter Rüstung. Er hat eine autoritäre Präsenz und wird von mehreren schlicht gekleideten Schreibern und mittelmäßig gerüsteten Vollstreckern begleitet. Der Kommandant kann mit anderen infernalischen Wesen kommunizieren und hat die Kontrolle über sie.\nEr erklärt, dass die Herzogin, die die Gruppe sucht, sich noch auf dem Gelände aufhält und dass es nur eine Frage der Zeit sei, bis sie gefunden werde. Der Kommandant bietet an, dass die Gruppe die Herzogin finden und ausliefern könne, was für ihn von Interesse sei. Er fordert Surina auf, ihren Namen zu nennen, und erachtet ihren Namen „Steven“ als unglaubwürdig.\nAls Surina nach ihrem Vater fragt, erklärt der Kommandant, dass ihr Vater sich in der Hölle befinde und dass seine Seele freikaufbar sei, wenn ihr Wert bestimmt werde. Er informiert Surina, dass Dragonborn nicht auf natürliche Weise geboren werden, sondern erschaffen werden, und dass sie keine Seele besitze, die sie verkaufen könnte. Der Kommandant bietet an, für einen Höllenhund 58 Seelen zu beschaffen, wobei er betont, dass je unschuldiger die Seelen seien, desto wertvoller sie wären.\nEr warnt sie, dass sie bei einem Scheitern an dem Geschäft auf unbestimmte Zeit in der Hölle arbeiten müsse. Nachdem Surina sich gegen den Deal entschieden hat, zieht der Kommandant seine Hand zurück und kehrt zu seinen Untergebenen zurück.",
            "backstory": null,
            "type": "NPC",
            "image": null,
            "tcg_image": null,
            "campaign_id": "cmj78gm6k000004jrvzm7gcjr",
            "merge": false
        },
        {
            "created_at": "2026-05-13T20:01:06.055000",
            "updated_at": null,
            "id": "p1lin11ml3bjifrqkip37fle",
            "character_name": "Vater der getöteten dritten Tochter",
            "character_alias": null,
            "character_aliases": [],
            "player_name": null,
            "player_handle": null,
            "player": null,
            "description": "Der Vater der getöteten dritten Tochter ist ein verzweifelter Mann, der emotional auf den Tod seiner Tochter reagiert. Er schlägt Surina Nemmonis von hinten gegen Nacken und Schulter und ruft: „Was habt ihr getan?“. Seine Schläge sind verzweifelt, aber nicht ernsthaft schädlich. Er beschuldigt Surina, etwas mit dem Tod seiner Tochter zu tun zu haben, und ignoriert ihre Erklärung, dass sie nichts getan habe und ihn nur zu seiner Tochter gebracht habe. Nachdem Surina versucht, die beiden anderen Töchter zu trösten, hört er plötzlich auf zu schlagen, als eine dicke Ranke ihn am Hals packt und hochreißt.\nEr fällt etwa anderthalb Meter zu Boden, während sich die Ranke um seinen Hals wie eine Würgeschlange zusammenzieht und ihn stranguliert. Surina befreit ihn schließlich, nachdem sie die Ranken durchtrennt hat. Der Vater ist geschwächt und schnappte nach Luft, während er versucht, die verbleibende Ranke um seinen Hals zu entfernen.",
            "backstory": null,
            "type": "NPC",
            "image": null,
            "tcg_image": null,
            "campaign_id": "cmj78gm6k000004jrvzm7gcjr",
            "merge": false
        },
        {
            "created_at": "2026-05-13T20:01:06.037000",
            "updated_at": null,
            "id": "tmoa6dd5ezpi2i2avf3czm2o",
            "character_name": "Zweite Tochter",
            "character_alias": null,
            "character_aliases": [],
            "player_name": null,
            "player_handle": null,
            "player": null,
            "description": "Die Zweite Tochter ist eine humanoide Gestalt, die in einem Moment der Anspannung herabschwebt. Sie zeigt sich gefasst und geht direkt auf ihren Vater zu. In einer entscheidenden Handlung gibt sie ihm eine Ohrfeige und fordert ihn auf, seine Rolle im Haus abzugeben, andernfalls würden sie alle sterben.\nNachdem die Vater der getöteten dritten Tochter in einem Vorfall getötet wird, bleibt die Zweite Tochter in der Nähe, ohne sofort zu reagieren. Sie zieht sich nicht zurück, sondern bleibt präsent, während die Situation um sie herum eskaliert. Ihre Interaktion mit Surina zeigt, dass sie in der Lage ist, in kritischen Momenten zu handeln.",
            "backstory": null,
            "type": "NPC",
            "image": null,
            "tcg_image": null,
            "campaign_id": "cmj78gm6k000004jrvzm7gcjr",
            "merge": false
        },
        {
            "created_at": "2026-05-13T20:01:06.020000",
            "updated_at": null,
            "id": "kaxujs47d8g9cf9odqtwcc4i",
            "character_name": "Erste Tochter",
            "character_alias": null,
            "character_aliases": [],
            "player_name": null,
            "player_handle": null,
            "player": null,
            "description": "Die Erste Tochter erscheint in humanoider Gestalt vor ihrem Vater, schwebt langsam herab und schlägt ihm unter Tränen mit den Fäusten gegen die Brust, bevor sie vor ihm zusammenbricht. Ihre Erscheinung ist von Traurigkeit geprägt, was durch ihre Tränen und den körperlichen Ausdruck ihrer Verzweiflung deutlich wird.\nNachdem die Erste Tochter zu Boden gefallen ist, folgt die Zweite Tochter, die gefasst auf ihren Vater zugeht und ihm eine Ohrfeige gibt. Sie fordert ihn auf, seine Rolle im Haus abzugeben, andernfalls würden sie alle sterben. Die Vater der getöteten dritten Tochter schwebt ebenfalls herab und äußert, dass es immer Schwund und Schaden gebe, aber man deshalb nicht die Werte seines Hauses verraten sollte. Diese Tochter bemerkt ein kleines Kaninchen, packt es und bricht ihm mit bloßen Händen das Genick.\nDie Vater der getöteten dritten Tochter wird dann von Ranken aus dem Gebüsch ergriffen, in die Luft gerissen und durchbohrt. Ihr Kopf sackt nach vorn, und sie wirkt tot. Die anderen Töchter sinken ebenfalls zu Boden, und eine von ihnen kauert sich zusammen.",
            "backstory": null,
            "type": "NPC",
            "image": null,
            "tcg_image": null,
            "campaign_id": "cmj78gm6k000004jrvzm7gcjr",
            "merge": false
        },
        {
            "created_at": "2026-05-13T20:01:05.957000",
            "updated_at": null,
            "id": "takoxa545xshumxrk9wauo97",
            "character_name": "Aurelian Rosethorne",
            "character_alias": null,
            "character_aliases": [],
            "player_name": null,
            "player_handle": null,
            "player": null,
            "description": "Aurelian ist ein Mitglied der Familie de Rosson und lebt in Calimport. Auf ihn ist ein hohes Kopfgeld ausgesetzt. Er wird als Vater von Naevys Nerizana identifiziert.\n\nNaevys erfährt von Doran, dass Aurelian noch lebt und dass es vorteilhaft für sie sei, in seiner Nähe zu sein, da sein Kopf wertvoll sein könnte. Doran erklärt, dass Aurelian in der Vergangenheit eine bedeutende Rolle gespielt hat und dass seine Identität geheim gehalten werden sollte, um Naevys zu schützen.",
            "backstory": null,
            "type": "NPC",
            "image": null,
            "tcg_image": null,
            "campaign_id": "cmj78gm6k000004jrvzm7gcjr",
            "merge": false
        },
        {
            "created_at": "2026-04-30T14:06:52.324000",
            "updated_at": null,
            "id": "jl60my4lyipc77ro3iisx18p",
            "character_name": "Mister Walross",
            "character_alias": null,
            "character_aliases": [],
            "player_name": null,
            "player_handle": null,
            "player": null,
            "description": "Mister Varos ist ein sprechendes Walross und wird als neues Crewmitglied vorgeschlagen. Er hat die Fähigkeit zu sprechen und ist bereit, sich der Pinguin-Crew anzuschließen, sofern er am nächsten Morgen Frühstück erhält.\nSurina Nemmonis sucht Mister Varos auf und fragt ihn, ob er sich der Pinguin-Crew anschließen möchte. Mister Varos stimmt zu, am nächsten Morgen vor Sonnenaufgang zu ihnen zu wechseln. Am Morgen nimmt die Gruppe Mister Varos mit und führt ihn zur Pinguin-Crew, wo er sich ihnen anschließt und an Bord des metallenen Schiffes geht.\nMister Varos gehört zur Schiffscrew. Surina brachte dem Walross etwas zu fressen und führte es kurz an Bord des Schiffs. Sie bezeichnete es als „Zaubertrick“, dass dem Walross sein Kopf wieder dran sei. Während der Schiffreparaturen wurde diskutiert, ob das Walross noch am Schiff sei.",
            "backstory": null,
            "type": "NPC",
            "image": null,
            "tcg_image": null,
            "campaign_id": "cmj78gm6k000004jrvzm7gcjr",
            "merge": true
        },
        {
            "created_at": "2026-04-30T13:49:33.878000",
            "updated_at": null,
            "id": "ao0r8gkb539ipujh0vc8yewu",
            "character_name": "Akhlut",
            "character_alias": null,
            "character_aliases": [
                "der Aklut"
            ],
            "player_name": null,
            "player_handle": null,
            "player": null,
            "description": "Aklut ist ein Wasserjäger, der auch an Land laufen kann. Er wird als sehr groß beschrieben und ist in seiner Gefährlichkeit einem großen Bären ähnlich. Während einer Begegnung schoss Aklut aus einem Eisloch, packte eine Robbe und bewegte sich in Richtung eines weiteren Eislochs. Er wurde von Gwendolyn Silverflame mit einem Feuerzauber getroffen und von Surina Nemmonis, die eine Handaxt mit einem Seil befestigt hatte, am vorderen Bein eingehakt. Dîn-io Tempest traf Aklut mit einem Blitzangriff, während Naevys Nerizana und Brennen Voidridge ihn ebenfalls verletzten. Flopsi setzte einen Feuerangriff gegen Aklut ein, wodurch das Eis unter ihm zu dünn wurde.\n\nSurina Nemmonis stemmte sich mit aller Kraft gegen den Zug am Seil, um zu verhindern, dass Aklut sofort wieder vollständig abzutauchen konnte. Aklut versuchte, sich um Surina Nemmonis herum zu bewegen, was Dîn-io Tempest die Gelegenheit gab, ihn zu treffen. Naevys Nerizana ging in den Nahkampf über und setzte mehrere Hiebe mit Kurzschwertern. Gwendolyn Silverflame und Flopsi wirkten weitere Feuerangriffe, wodurch Aklut deutliche Schwächen zeigte und humpelte. Schließlich wurde Aklut von Brennen Voidridge getötet.",
            "backstory": null,
            "type": "NPC",
            "image": null,
            "tcg_image": null,
            "campaign_id": "cmj78gm6k000004jrvzm7gcjr",
            "merge": false
        },
        {
            "created_at": "2026-04-30T13:49:33.858000",
            "updated_at": null,
            "id": "di7k23ss1fewy18oqzgkd441",
            "character_name": "Admiral Eri",
            "character_alias": null,
            "character_aliases": [
                "Der Pinguin",
                "Pinguin",
                "Kapitän",
                "der Admiral",
                "Admiral des Schiffs"
            ],
            "player_name": null,
            "player_handle": null,
            "player": null,
            "description": "Der Admiral ist ein Pinguin, der ein stabiles Schiff kommandiert, das durch das Eis bricht. Er stellt sich als der Admiral des Schiffs vor und erklärt, dass sie Piraten sind. Der Admiral bietet der Gruppe an, sie zur Insel mit dem Hort von Ava Charus in der offenen See zu bringen und warnt, dass seit zweihundert Jahren kein Schiff diese Passage wegen Ava Charus geschafft hat. Er schlägt vor, gemeinsam zu fahren und den Hort im Erfolgsfall „halbe-halbe“ zu teilen, falls die Gruppe die Drachenlady tötet.\n\nSurina Nemmonis geht mit dem Admiral an Bord seines Schiffes, wo sie eine Crew aus mehreren Pinguinen, einem Hai und einigen Enten sieht, die den eintreffenden Kapitän salutieren. Der Admiral fragt die Gruppe, ob sie nicht bei ihm mitfahren wollen, und versichert, dass sein Schiff besser schwimmt als ihres. Er erklärt, dass sie nur auf die offene See hinaus müssen, um zur Insel zu gelangen, wo Ava Charus lebt. Der Admiral fordert die Gruppe auf, bis zum Morgen über die Mitfahrt zu entscheiden, da sein Schiff dann ablegen wird.",
            "backstory": null,
            "type": "NPC",
            "image": null,
            "tcg_image": null,
            "campaign_id": "cmj78gm6k000004jrvzm7gcjr",
            "merge": false
        }
    ],
    "from": 1,
    "last_page": 8,
    "per_page": 20,
    "to": 20,
    "total": 142
}
