{
    "current_page": 1,
    "data": [
        {
            "created_at": "2026-05-21T13:32:43.031000",
            "updated_at": null,
            "id": "djidsx0998o3zctj8v8sfgn4",
            "label": "Der Zwerg und das Schiff auf Kufen",
            "content": "Die Gruppe trifft auf einen Zwerg, der ein Schiff Mit Kufen präsentiert, das über den Schnee gezogen werden kann. Tim, in der Rolle von Dîn-io Tempest, fragt den Zwerg, ob er jemanden empfehlen kann, der sich um das Schiff kümmern könnte, während er sich über die Stabilität des Schiffs erkundigt. Der Zwerg erklärt, dass das Schiff für die Reise zur nächsten Stadt geeignet ist und dass sie es bis zur nächsten Stadt nutzen sollten. Surina Nemmonis zieht Gwendolyn Silverflame an sich und äußert ihre Unsicherheit über die Richtung, während die Gruppe sich auf den Weg macht. Naevys Nerizana fragt den Zwerg, ob das Schiff nun fertig sei, und erhält die Bestätigung, dass es bereit ist.",
            "image": null,
            "index": 565,
            "categories": [
                "Exploration",
                "Negotiation"
            ],
            "campaign_id": "cmj78gm6k000004jrvzm7gcjr",
            "session_id": "cmpffnto0000004l5ahvyz1s7"
        },
        {
            "created_at": "2026-05-21T13:32:43.031000",
            "updated_at": null,
            "id": "dtcp290wnx8n2s14lrs0gf6x",
            "label": "Naevys und der magische Schlüssel",
            "content": "Naevys Nerizana nimmt einen Schlüssel und versucht, ihn im Schloss der Zellentür zu drehen. Der Schlüssel dreht sich im Schloss, doch die Tür öffnet sich nicht. Gwendolyn Silverflame vermutet, dass die Tür magisch verriegelt ist. Naevys bemerkt, dass kein Klick zu hören ist, was die Situation merkwürdig macht. Gwendolyn äußert die Möglichkeit von Magie, während die Gruppe über mögliche Lösungen diskutiert. Die Spannung steigt, als sie überlegen, wie sie die Tür überwinden können.",
            "image": null,
            "index": 558,
            "categories": [
                "Mystery",
                "Intrigue"
            ],
            "campaign_id": "cmj78gm6k000004jrvzm7gcjr",
            "session_id": "cmpffnto0000004l5ahvyz1s7"
        },
        {
            "created_at": "2026-05-21T13:32:43.031000",
            "updated_at": null,
            "id": "ef7cwklohx5e3b4n7hlexe9p",
            "label": "Surina übernimmt die Nachtwache",
            "content": "Während die anderen sich ausruhen oder meditieren, übernimmt Surina Nemmonis, die Drachenherrin, die Nachtwache auf dem Schiff. Sie erklärt, dass sie gut geschlafen hat, im Gegensatz zu den anderen, und bietet an, die Wache zu übernehmen, während Dîn-io Tempest sich für einige Stunden zurückzieht, um zu meditieren. Naevys Nerizana fragt Surina, ob sie die Wache ausnahmsweise übernehmen kann, und Surina stimmt sofort zu. Dîn-io äußert den Wunsch, durchzuschlafen, während die Gruppe sich auf die bevorstehenden Herausforderungen vorbereitet. Surina blickt in den Himmel und hofft, ihre Mutter zu sehen.",
            "image": null,
            "index": 570,
            "categories": [
                "Conflict",
                "Heroism"
            ],
            "campaign_id": "cmj78gm6k000004jrvzm7gcjr",
            "session_id": "cmpffnto0000004l5ahvyz1s7"
        },
        {
            "created_at": "2026-05-21T13:32:43.031000",
            "updated_at": null,
            "id": "eh2s5whoil8rju9deny1rcgf",
            "label": "Der Aufseher öffnet den Nebenraum",
            "content": "Der Aufseher öffnete den bislang verschlossenen Nebenraum und stellte die magische Unterdrückung ab. Sofort spürten Gwendolyn und Dîn-io, wie ihre Kräfte zurückkehrten. Gwendolyn schaute auf und bemerkte die Veränderung in der Luft, während Dîn-io seine gefesselten Hände bewegte und sich bereit machte, seine Magie wieder zu nutzen. Die beiden waren nun bereit, sich den Herausforderungen zu stellen.",
            "image": null,
            "index": 560,
            "categories": [
                "Revelation",
                "Conflict"
            ],
            "campaign_id": "cmj78gm6k000004jrvzm7gcjr",
            "session_id": "cmpffnto0000004l5ahvyz1s7"
        },
        {
            "created_at": "2026-05-21T13:32:43.031000",
            "updated_at": null,
            "id": "g4fodgk9sb2j96ndfza7l3jx",
            "label": "Wette um die Rückkehr der Magie",
            "content": "Die Gruppe diskutiert über eine Wette, um die Magie zurückzubringen und den Orb zu erhalten. Naevys schlägt vor, dass sie die Magie zurückbekommen und den Orb mitnehmen, wenn sie gewinnen, während sie im Falle einer Niederlage von Surina angepinkelt wird. Dîn-io bringt die Idee ein, wer am längsten die Luft anhalten kann, was Gwendolyn mit einem Scherz kommentiert. Surina fragt, wer von ihnen die Wette annehmen wird, und die Gruppe überlegt, wie sie die Herausforderung umsetzen können. Die Wette wird als Möglichkeit gesehen, die Langeweile im Gefängnis zu vertreiben und gleichzeitig ein wichtiges Ziel zu erreichen.",
            "image": null,
            "index": 562,
            "categories": [
                "Banter",
                "Negotiation",
                "Chaos"
            ],
            "campaign_id": "cmj78gm6k000004jrvzm7gcjr",
            "session_id": "cmpffnto0000004l5ahvyz1s7"
        },
        {
            "created_at": "2026-05-21T13:32:43.031000",
            "updated_at": null,
            "id": "h4al3bin7k93nre6xms9iho8",
            "label": "Dîn-io entdeckt die Falle unter dem Mammut",
            "content": "Titel: Alarm unter dem Mammut\nAls Dîn-io Tempest die magische Aura unter dem Mammut wahrnimmt, erkennt er, dass es sich um Alarm- oder Fangmagie handelt. \"Ich schließe daraus, dass ein Alarm wahrscheinlich losgegangen ist, als der reingefallen ist\", erklärt er seinen Gefährten. Er erläutert weiter, dass der Zauber, der unter dem Mammut platziert wurde, denjenigen informiert, der die Falle aufgestellt hat, dass jemand hineingefallen ist. Naevys Nerizana fragt daraufhin, ob das, was unter dem Mammut ist, der Grund für den Fluch sei, und Dîn-io bestätigt dies mit seiner Analyse der Situation. Die Gruppe wird sich der Gefahr bewusst, die von der Falle ausgeht.",
            "image": null,
            "index": 573,
            "categories": [
                "Intrigue",
                "Conflict"
            ],
            "campaign_id": "cmj78gm6k000004jrvzm7gcjr",
            "session_id": "cmpffnto0000004l5ahvyz1s7"
        },
        {
            "created_at": "2026-05-21T13:32:43.031000",
            "updated_at": null,
            "id": "jdysc50jyrezna8hfmgeggkh",
            "label": "Surina warnt die Mammuts vor den Jägern",
            "content": "Als die Gruppe auf die Jäger zusteuert, bemerkt Surina die Mammuts in der Nähe und versucht, ihnen zuzuschlüstern, dass sie verschwinden sollen, da die Jäger kommen. Sie geht vorsichtig, aber freundlich auf die Jäger zu und sagt: \"Guten Morgen.\" Naevys, die die Mammuts beobachtet, nickt ihnen zu und signalisiert, dass sie wirklich verschwinden sollten. Die Mammuts scheinen Surinas Warnung registriert zu haben und reagieren entsprechend. Die bewaffneten Jäger bemerken ebenfalls die Mammuts, was die Situation angespannt macht.",
            "image": null,
            "index": 574,
            "categories": [
                "Conflict",
                "Suspense"
            ],
            "campaign_id": "cmj78gm6k000004jrvzm7gcjr",
            "session_id": "cmpffnto0000004l5ahvyz1s7"
        },
        {
            "created_at": "2026-05-21T13:32:43.031000",
            "updated_at": null,
            "id": "jnz8jxb1aua4fpsm9b61q7c5",
            "label": "Naevys und die Mammuts schmieden einen Plan",
            "content": "Naevys Nerizana schlägt den Mammuts vor, das gefangene Tier mit zusammengebundenen Seilen herauszuziehen. Die Mammuts, die um das Loch versammelt sind, finden diesen Plan gut und stimmen zu. Naevys erfährt, dass das Tier seit gestern im Loch ist und nichts zu essen oder zu trinken hatte. Die Mammuts stellen sich nebeneinander auf, bereit, ihren Freund zu befreien.",
            "image": null,
            "index": 571,
            "categories": [
                "Heroism",
                "Conflict"
            ],
            "campaign_id": "cmj78gm6k000004jrvzm7gcjr",
            "session_id": "cmpffnto0000004l5ahvyz1s7"
        },
        {
            "created_at": "2026-05-21T13:32:43.031000",
            "updated_at": null,
            "id": "kgu580hixglgfwt4mknsjfgm",
            "label": "Die Warnung der Wolfsmutter",
            "content": "Die Wolfsmutter warnt Naevys, dass mit dem Mammut etwas nicht stimme und dass es in der Gegend Tiere gebe, die einen Fluch weitergeben könnten. Naevys fragt die Wolfsmutter, ob sie gesehen hat, aus welcher Richtung die Mammuts kamen, und erfährt, dass das Mammut, das jetzt im Loch ist, zuvor schon merkwürdig aussah. Sie bietet der Wolfsmutter Trockenfleisch an, um ihre Dankbarkeit zu zeigen. Gwendolyn und Dîn-io diskutieren über die Art des Fluchs, der auf dem Mammut lastet. Naevys erklärt, dass es sich um einen infektiösen Fluch handelt, der aggressives Verhalten hervorrufen könnte, wenn andere Tiere angesteckt werden. Gwendolyn beschließt, mit einem Zauber die magischen Auren in der Umgebung zu untersuchen, um mehr über den Fluch zu erfahren.",
            "image": null,
            "index": 572,
            "categories": [
                "Suspense",
                "Intrigue"
            ],
            "campaign_id": "cmj78gm6k000004jrvzm7gcjr",
            "session_id": "cmpffnto0000004l5ahvyz1s7"
        },
        {
            "created_at": "2026-05-21T13:32:43.031000",
            "updated_at": null,
            "id": "kuj8bg2aal9by3xw34cz09bm",
            "label": "Surina spricht mit dem Yeti",
            "content": "Surina Nemmonis beginnt, mit dem Yeti zu sprechen, während Dîn-io Tempest seine magischen Fähigkeiten einsetzt, um den Yeti abzulenken. Naevys Nerizana und Gwendolyn Silverflame diskutieren, ob sie den Yeti umgehen oder abwarten sollen, während Surina sich auf ihre Kommunikation mit dem Yeti konzentriert. Dîn-io äußert, dass es nicht ratsam sei, sich mit einem Yeti anzulegen, und bemerkt, dass der Yeti groß ist und viel frisst. Trotz der Bedenken von Dîn-io und Gwendolyn bleibt Surina entschlossen, den Yeti zu kontaktieren. Schließlich führt Surinas Versuch, mit dem Yeti zu sprechen, dazu, dass der Yeti in Panik wegläuft.",
            "image": null,
            "index": 568,
            "categories": [
                "Negotiation",
                "Conflict"
            ],
            "campaign_id": "cmj78gm6k000004jrvzm7gcjr",
            "session_id": "cmpffnto0000004l5ahvyz1s7"
        },
        {
            "created_at": "2026-05-21T13:32:43.031000",
            "updated_at": null,
            "id": "o2pf83cda7evue8i9lb80ieh",
            "label": "Dîn-io und Naevys sammeln Pflanzen während der Ablenkung des Yetis",
            "content": "Während der Ablenkung des Yetis beugte sich Dîn-io Tempest hinunter und schnitt mit seiner Sichel verwertbare Pflanzen am Ufer ab. Naevys Nerizana rief ihm zu, dass er mit seinem Gemüse weitermachen solle, und bot ihm ihre Unterstützung an. Dîn-io bemerkte, dass der Yeti abgelenkt war, und nutzte die Gelegenheit, um weiter Pflanzen zu sammeln. Naevys half ihm, indem sie ihm eine Hörbele gab, um die Ernte zu erleichtern. Gemeinsam arbeiteten sie effizient, während der Yeti in der Ferne brüllte.",
            "image": null,
            "index": 569,
            "categories": [
                "Loot",
                "Hijinx"
            ],
            "campaign_id": "cmj78gm6k000004jrvzm7gcjr",
            "session_id": "cmpffnto0000004l5ahvyz1s7"
        },
        {
            "created_at": "2026-05-21T13:32:43.031000",
            "updated_at": null,
            "id": "o6ywrae3fxsqabcjcmebywl4",
            "label": "Surina rollt die Metallkugel zur Tür",
            "content": "Surina Nemmonis, auch bekannt als die Drachenherrin, versucht, die große Metallkugel zur Tür zu rollen. Als sie die Kugel bewegt, bleibt diese im Türrahmen stecken. Die Gruppe diskutiert, wie sie die Situation lösen können. Naevys Nerizana schlägt vor, die Decke durchzubrechen, um die Kugel nach draußen zu werfen. Surina fragt, ob sie Bandscheiben hat, was die anderen zum Schmunzeln bringt. Die Gruppe ist sich einig, dass sie einen kreativen Weg finden müssen, um die Kugel zu befreien.",
            "image": null,
            "index": 561,
            "categories": [
                "Hijinx",
                "Conflict"
            ],
            "campaign_id": "cmj78gm6k000004jrvzm7gcjr",
            "session_id": "cmpffnto0000004l5ahvyz1s7"
        },
        {
            "created_at": "2026-05-21T13:32:43.031000",
            "updated_at": null,
            "id": "p9ldztebmayihu6og96z8f2k",
            "label": "Der Aufseher hält Dîn-io fest",
            "content": "Während des Wettkampfs hält der Aufseher Dîn-io am Nacken fest, was zu Protesten von Naevys und Gwendolyn führt. Gwendolyn äußert, dass es unfair sei, die Magie zu unterdrücken und die Wette zu manipulieren, während Naevys hinzufügt, dass sie nicht einmal gefragt wurden, ob sie teilnehmen dürfen. Naevys wird zunehmend unzufrieden mit dem Verhalten des Aufsehers und bemerkt, dass dieser sich merkwürdig verhält. Inmitten der angespannten Situation gibt Dîn-io mit einem Daumen nach oben zu verstehen, dass er die Herausforderung annimmt, während die anderen weiterhin gegen die Ungerechtigkeit protestieren. Die Spannung steigt, als der Aufseher Dîn-io weiterhin unter Wasser hält.",
            "image": null,
            "index": 563,
            "categories": [
                "Conflict",
                "Suspense"
            ],
            "campaign_id": "cmj78gm6k000004jrvzm7gcjr",
            "session_id": "cmpffnto0000004l5ahvyz1s7"
        },
        {
            "created_at": "2026-05-21T13:32:43.031000",
            "updated_at": null,
            "id": "r044cpmr687g035sl0rdq6k5",
            "label": "Der Zwerg warnt Surina vor Aveachurus",
            "content": "Während einer Diskussion über Drachen erfährt Surina Nemmonis von einem Zwerg, dass in der Gegend eine alte weiße Drachin namens Aveachurus umherstreift. Der Zwerg warnt sie eindringlich, dass sie kleinlaut sein sollte, da Drachen, insbesondere Aveachurus, alles vernichten, was sie sehen. Surina notiert sich die Informationen über die Drachin, einschließlich ihrer Eigenschaften und ihrer launischen Natur. Sie äußert den Plan, langsamer zu fahren, um nicht in die Schusslinie der Drachin zu geraten, und bestätigt, dass sie aufpassen werden. Die Gruppe einigt sich darauf, vorsichtig zu sein, um nicht die Aufmerksamkeit der mächtigen Drachin auf sich zu ziehen.",
            "image": null,
            "index": 566,
            "categories": [
                "Suspense",
                "Intrigue"
            ],
            "campaign_id": "cmj78gm6k000004jrvzm7gcjr",
            "session_id": "cmpffnto0000004l5ahvyz1s7"
        },
        {
            "created_at": "2026-05-21T13:32:43.031000",
            "updated_at": null,
            "id": "rw6wg79hhgyiptn88b35hbzb",
            "label": "Rast am zugefrorenen Flusslauf",
            "content": "Die Gruppe erreicht am Abend einen teilweise zugefrorenen Flusslauf und legt eine kurze Rast ein. Während sie sich umschauen, bemerkt Dîn-io, dass er erschöpft ist, und fragt, ob sie noch weiterfahren können. Naevys schlägt vor, das Boot in den Fluss zu schieben, um ein Stück abwärts zu treiben, doch Gwendolyn meint, dass es besser wäre, eine Pause zu machen, da Dîn-io Schwierigkeiten hat. Die Kälte macht sich bemerkbar, und Flopsy fror in der eisigen Umgebung, was die Gruppe dazu bringt, ihre Entscheidung zu überdenken. Schließlich wird klar, dass eine Rast notwendig ist, um sich zu erholen und die nächsten Schritte zu planen.",
            "image": null,
            "index": 567,
            "categories": [
                "Banter",
                "Exploration"
            ],
            "campaign_id": "cmj78gm6k000004jrvzm7gcjr",
            "session_id": "cmpffnto0000004l5ahvyz1s7"
        },
        {
            "created_at": "2026-05-21T13:32:43.031000",
            "updated_at": null,
            "id": "s9t2orexakstdiejzo9zwgoc",
            "label": "Ausrüstungsanfrage beim Aufseher",
            "content": "Die Gruppe, bestehend aus Gwendolyn, Dîn-io, Naevys und Surina, wendet sich an den Aufseher und bittet um Ausrüstung für ihre bevorstehende Reise. Dîn-io fragt nach Handwerkssachen und Verbänden, während Gwendolyn einen warmen Mantel anfragt, um sich gegen die Kälte zu schützen. Der Aufseher bietet ihnen eine Sichel und ein Messer an und erwähnt, dass sie bereits wetterfeste Mäntel erhalten haben. Naevys und Surina bestätigen, dass sie ebenfalls Mäntel benötigen, und Surina äußert den Wunsch, einen weiteren Mantel zu nehmen, falls noch einer verfügbar ist. Die Gruppe bedankt sich bei Dîn-io für seine Initiative, die Ausrüstung zu organisieren.",
            "image": null,
            "index": 564,
            "categories": [
                "Loot",
                "Negotiation"
            ],
            "campaign_id": "cmj78gm6k000004jrvzm7gcjr",
            "session_id": "cmpffnto0000004l5ahvyz1s7"
        },
        {
            "created_at": "2026-05-21T13:32:43.031000",
            "updated_at": null,
            "id": "wp4isfde11quxdyahwk69yzy",
            "label": "Aufstieg zur Steuerzentrale",
            "content": "Die Gruppe, bestehend aus Gwendolyn Silverflame, Naevys Nerizana, Surina Nemmonis und Dîn-io Tempest, diskutiert über ihre nächsten Schritte im Gefängnis. Gwendolyn schlägt vor, nach oben zu gehen, um den Bereich zu suchen, von dem aus die Zellen gesteuert werden. Naevys stimmt zu, da sie noch nicht viel von diesem Gefängnis gesehen hat, und Dîn-io steht auf, um sich der Gruppe anzuschließen. Surina fragt, ob sie zuerst nach oben gehen und dann Gewalt anwenden sollen. Gwendolyn erklärt, dass sie nur nach oben gehen können, solange die Tür unten verschlossen ist. Schließlich beschließen sie, die Treppe hinaufzugehen, um herauszufinden, was sich dort verbirgt.",
            "image": null,
            "index": 559,
            "categories": [
                "Exploration",
                "Conflict"
            ],
            "campaign_id": "cmj78gm6k000004jrvzm7gcjr",
            "session_id": "cmpffnto0000004l5ahvyz1s7"
        },
        {
            "created_at": "2026-05-18T16:55:22.523000",
            "updated_at": null,
            "id": "butlp7odsnxj02l6lwc5wtvr",
            "label": "Die Hohepriesterin fragt Surina",
            "content": "Während die Gruppe in der Diskussion über die Dinge, die sie entwendet haben, vertieft ist, tritt die Hohepriesterin ein und schaut verwirrt auf die Anwesenden. Sie fragt: \"Wie habt ihr das gemacht?\" Surina, die Drachenherrin, antwortet, dass sie sich mit Auriel gut versteht, und erklärt, dass ihre Religion und Glaubenssache mit Auriel verbunden ist. Die Hohepriesterin, halb Kreidebleich, macht einen Schritt zurück und scheint von Surinas Antwort überrascht zu sein. Die Situation bleibt angespannt, während die Gruppe versucht, die Hohepriesterin von ihren Absichten zu überzeugen.",
            "image": null,
            "index": 546,
            "categories": [
                "Intrigue",
                "Conflict"
            ],
            "campaign_id": "cmj78gm6k000004jrvzm7gcjr",
            "session_id": "cmpbdnlls000004l15qelefj9"
        },
        {
            "created_at": "2026-05-18T16:55:22.523000",
            "updated_at": null,
            "id": "co3jawg4k7iyta0q85byrfq9",
            "label": "Dîn-io erhält die Woodcarver’s Tools",
            "content": "Titel: Dîn-io Tempest und die Woodcarver’s Tools\nIn den folgenden Tagen arbeitete Dîn-io Tempest mehrere Tage für einen Holzarbeiter, um sich die Woodcarver’s Tools zu verdienen. Während dieser Zeit wies Gummibeer Herrmann ihn darauf hin, dass er für seine Arbeit auch Gold erhalten würde. Dîn-io äußerte den Wunsch, die Woodcarver’s Tools zu haben, und plante, zusätzlich Kräuter zu sammeln. Schließlich erhielt er die Werkzeuge und verdiente damit auch etwas Gold, was ihm half, seine finanziellen Mittel zu verbessern.",
            "image": null,
            "index": 552,
            "categories": [
                "Loot",
                "Growth"
            ],
            "campaign_id": "cmj78gm6k000004jrvzm7gcjr",
            "session_id": "cmpbdnlls000004l15qelefj9"
        },
        {
            "created_at": "2026-05-18T16:55:22.523000",
            "updated_at": null,
            "id": "cswxukssejzm7arn02s38tri",
            "label": "Surina verteidigt ihre Absichten",
            "content": "Während einer Diskussion mit der Stadtwache äußerte Surina Nemmonis, dass die Gruppe lediglich einem Verdacht nachgehen wollte, ohne eine endgültige Beschuldigung auszusprechen. Sie erklärte, dass es nicht ihre Absicht sei, einer der Priesterinnen zu unterstellen, dass sie Dinge tut, die nicht im Interesse der Stadt sind. Surina betonte, dass es sich um eine bloße Vermutung handele und dass sie sicherstellen wollten, dass keine üble Nachrede im Spiel sei. Diese Klarstellung kam in einem Moment, in dem die Stadtwache misstrauisch gegenüber den Absichten der Gruppe war. Surina versuchte, die Situation zu entschärfen, indem sie ihre wahren Absichten darlegte und die Vorwürfe zurückwies.",
            "image": null,
            "index": 545,
            "categories": [
                "Negotiation",
                "Intrigue"
            ],
            "campaign_id": "cmj78gm6k000004jrvzm7gcjr",
            "session_id": "cmpbdnlls000004l15qelefj9"
        }
    ],
    "from": 1,
    "last_page": 28,
    "per_page": 20,
    "to": 20,
    "total": 558
}
